{
  "reporterEnabled": "mochawesome",
  "mochawesomeReporterOptions": {
    "reportDir": "reports/cypress/",
    "consoleReporter": "spec",
    "quiet": true,
    "overwrite": false,
    "html": true,
    "json": true
  }
}
